…
Below is a table summarizing the number of items ordered from aisle. In
total, there are 134 aisles, with fresh vegetables and fresh fruits
holding the most items ordered by far.

``` r
instacart |> 
  count(aisle) |> 
  arrange(desc(n))
```

    ## # A tibble: 134 × 2
    ##    aisle                              n
    ##    <chr>                          <int>
    ##  1 fresh vegetables              150609
    ##  2 fresh fruits                  150473
    ##  3 packaged vegetables fruits     78493
    ##  4 yogurt                         55240
    ##  5 packaged cheese                41699
    ##  6 water seltzer sparkling water  36617
    ##  7 milk                           32644
    ##  8 chips pretzels                 31269
    ##  9 soy lactosefree                26240
    ## 10 bread                          23635
    ## # ℹ 124 more rows
…
\##Proble 2 Data cleaning

``` r
data("brfss_smart2010")
brfss_data =
  brfss_smart2010|>
  janitor::clean_names()|>
  rename("state"="locationabbr" , "location"="locationdesc") |>
  filter(topic=='Overall Health')|>
  filter(response %in% c("Excellent","Very good","Good","Fair","Poor"))|>
  mutate(response = factor(response, levels = c("Poor", "Fair", "Good", "Very Good", "Excellent"), ordered = TRUE))
brfss_data
```

    ## # A tibble: 10,625 × 23
    ##     year state location     class topic question response sample_size data_value
    ##    <int> <chr> <chr>        <chr> <chr> <chr>    <ord>          <int>      <dbl>
    ##  1  2010 AL    AL - Jeffer… Heal… Over… How is … Excelle…          94       18.9
    ##  2  2010 AL    AL - Jeffer… Heal… Over… How is … <NA>             148       30  
    ##  3  2010 AL    AL - Jeffer… Heal… Over… How is … Good             208       33.1
    ##  4  2010 AL    AL - Jeffer… Heal… Over… How is … Fair             107       12.5
    ##  5  2010 AL    AL - Jeffer… Heal… Over… How is … Poor              45        5.5
    ##  6  2010 AL    AL - Mobile… Heal… Over… How is … Excelle…          91       15.6
    ##  7  2010 AL    AL - Mobile… Heal… Over… How is … <NA>             177       31.3
    ##  8  2010 AL    AL - Mobile… Heal… Over… How is … Good             224       31.2
    ##  9  2010 AL    AL - Mobile… Heal… Over… How is … Fair             120       15.5
    ## 10  2010 AL    AL - Mobile… Heal… Over… How is … Poor              66        6.4
    ## # ℹ 10,615 more rows
    ## # ℹ 14 more variables: confidence_limit_low <dbl>, confidence_limit_high <dbl>,
    ## #   display_order <int>, data_value_unit <chr>, data_value_type <chr>,
    ## #   data_value_footnote_symbol <chr>, data_value_footnote <chr>,
    ## #   data_source <chr>, class_id <chr>, topic_id <chr>, location_id <chr>,
    ## #   question_id <chr>, respid <chr>, geo_location <chr>
…
